[
  {
    "name": "Website",
    "desc": "Main website",
    "link": "https://sysody.eu"
  },
  {
    "name": "Cloud",
    "desc": "Nextcloud instance",
    "link": "https://cloud.sysody.eu"
  },
  {
    "name": "NPM",
    "desc": "Nginx Proxy Manager",
    "link": "https://npm.sysody.eu"
  },
  {
    "name": "Transmission",
    "desc": "Torrent Downloader",
    "link": "https://torrent.sysody.eu"
  },
  {
    "name": "Jellyfin",
    "desc": "Multimedia player",
    "link": "https://jellyfin.sysody.eu"
  },
  {
    "name": "Blog",
    "desc": "Personal space",
    "link": "https://blog.sysody.eu"
  }
]